[
  {
    "id": "0",
    "name": "name2",
    "code": "00jssdfk12",
    "percents": "84.0",
    "count": "12",
    "order": "0",
    "priority": "3"
  },
  {
    "id": "1",
    "name": "name3",
    "code": "00jsdkk12",
    "percents": "70.0",
    "count": "12",
    "order": "0",
    "priority": "3"
  },
  {
    "id": "2",
    "name": "name4",
    "code": "00jsscxdk12",
    "percents": "65.0",
    "count": "7",
    "order": "5",
    "priority": "1"
  },
  {
    "id": "3",
    "name": "name5",
    "code": "00jsdkk12",
    "percents": "70.0",
    "count": "12",
    "order": "0",
    "priority": "3"
  },
  {
    "id": "4",
    "name": "name6",
    "code": "00jssdfk12",
    "percents": "74.0",
    "count": "12",
    "order": "0",
    "priority": "3"
  },
  {
    "id": "5",
    "name": "name7",
    "code": "00jsdkk12",
    "percents": "20.0",
    "count": "12",
    "order": "0",
    "priority": "3"
  },
  {
    "id": "6",
    "name": "name8",
    "code": "00jsscxdk12",
    "percents": "15.0",
    "count": "7",
    "order": "5",
    "priority": "1"
  },
  {
    "id": "7",
    "name": "name9",
    "code": "00jsdkk12",
    "percents": "70.0",
    "count": "12",
    "order": "0",
    "priority": "3"
  },
  {
    "id": "8",
    "name": "name10",
    "code": "00jssdfk12",
    "percents": "14.0",
    "count": "12",
    "order": "0",
    "priority": "3"
  },
  {
    "id": "9",
    "name": "name11",
    "code": "00jsdkk12",
    "percents": "10.0",
    "count": "12",
    "order": "0",
    "priority": "3"
  },
  {
    "id": "10",
    "name": "name12",
    "code": "00jsscxdk12",
    "percents": "65.0",
    "count": "7",
    "order": "5",
    "priority": "1"
  }
]